{
    "id": 609120,
    "sha": "510453cda9fcee9238b9f9b49c7c46c655124e20",
    "ref": "upstream-stable",
    "status": "success",
    "created_at": "2020-06-29T10:01:19.565Z",
    "updated_at": "2020-06-29T17:47:31.150Z",
    "web_url": "https://gitlab/cki-project/cki-pipeline/pipelines/609120",
    "before_sha": "0000000000000000000000000000000000000000",
    "tag": false,
    "yaml_errors": null,
    "user": {
        "id": 34,
        "name": "CKI Bot",
        "username": "cki-bot",
        "state": "active",
        "avatar_url": "https://secure.gravatar.com/avatar/1d5811382e7ef0cd8f30ebbe1c252eba?s=80&d=identicon",
        "web_url": "https://gitlab/cki-bot"
    },
    "started_at": "2020-06-29T10:01:24.507Z",
    "finished_at": "2020-06-29T17:47:31.141Z",
    "committed_at": null,
    "duration": 27959,
    "coverage": null,
    "detailed_status": {
        "icon": "status_success",
        "text": "passed",
        "label": "passed",
        "group": "success",
        "tooltip": "passed",
        "has_details": true,
        "details_path": "/cki-project/cki-pipeline/pipelines/609120",
        "illustration": null,
        "favicon": "/assets/ci_favicons/favicon_status_success-8451333011eee8ce9f2ab25dc487fe24a8758c694827a582f17f42b0a90446a2.png"
    }
}
