{
    "id": 596980,
    "sha": "93a8b317b8eec6cc87c896ce56457824c9ef231c",
    "ref": "kernel-rt-rhel8",
    "status": "success",
    "created_at": "2020-06-09T07:53:05.328Z",
    "updated_at": "2020-06-09T14:56:23.594Z",
    "web_url": "https://gitlab/cki-project/brew-pipeline/pipelines/596980",
    "before_sha": "0000000000000000000000000000000000000000",
    "tag": false,
    "yaml_errors": null,
    "user": {
        "id": 34,
        "name": "CKI Bot",
        "username": "cki-bot",
        "state": "active",
        "avatar_url": "https://secure.gravatar.com/avatar/1d5811382e7ef0cd8f30ebbe1c252eba?s=80&d=identicon",
        "web_url": "https://gitlab/cki-bot"
    },
    "started_at": "2020-06-09T07:53:08.651Z",
    "finished_at": "2020-06-09T14:56:23.583Z",
    "committed_at": null,
    "duration": 25389,
    "coverage": null,
    "detailed_status": {
        "icon": "status_success",
        "text": "passed",
        "label": "passed",
        "group": "success",
        "tooltip": "passed",
        "has_details": true,
        "details_path": "/cki-project/brew-pipeline/pipelines/596980",
        "illustration": null,
        "favicon": "/assets/ci_favicons/favicon_status_success-8451333011eee8ce9f2ab25dc487fe24a8758c694827a582f17f42b0a90446a2.png"
    }
}
