{
    "id": 597354,
    "sha": "15671a3778321140157acc45255d6ff4a3eeeca8",
    "ref": "umb-results",
    "status": "success",
    "created_at": "2020-06-09T16:01:12.546Z",
    "updated_at": "2020-06-09T16:03:34.416Z",
    "web_url": "https://gitlab/cki-project/cki-pipeline/pipelines/597354",
    "before_sha": "0000000000000000000000000000000000000000",
    "tag": false,
    "yaml_errors": null,
    "user": {
        "id": 34,
        "name": "CKI Bot",
        "username": "cki-bot",
        "state": "active",
        "avatar_url": "https://secure.gravatar.com/avatar/1d5811382e7ef0cd8f30ebbe1c252eba?s=80&d=identicon",
        "web_url": "https://gitlab/cki-bot"
    },
    "started_at": "2020-06-09T16:01:15.577Z",
    "finished_at": "2020-06-09T16:03:34.411Z",
    "committed_at": null,
    "duration": 138,
    "coverage": null,
    "detailed_status": {
        "icon": "status_success",
        "text": "passed",
        "label": "passed",
        "group": "success",
        "tooltip": "passed",
        "has_details": true,
        "details_path": "/cki-project/cki-pipeline/pipelines/597354",
        "illustration": null,
        "favicon": "/assets/ci_favicons/favicon_status_success-8451333011eee8ce9f2ab25dc487fe24a8758c694827a582f17f42b0a90446a2.png"
    }
}
